<svg xmlns="http://www.w3.org/2000/svg" width="19" height="19" viewBox="0 0 19 19">
    <path fill="#000" fill-rule="evenodd" d="M13.57 1.463a8.821 8.821 0 0 1 3.278 3.27 8.841 8.841 0 0 1 1.204 4.517 8.841 8.841 0 0 1-1.204 4.518 8.888 8.888 0 0 1-3.279 3.278 8.841 8.841 0 0 1-4.517 1.204 8.841 8.841 0 0 1-4.518-1.204 8.888 8.888 0 0 1-3.278-3.278A8.841 8.841 0 0 1 .052 9.25c0-1.629.401-3.135 1.204-4.518a8.888 8.888 0 0 1 3.278-3.278A8.841 8.841 0 0 1 9.052.25c1.629 0 3.135.404 4.517 1.213zm.949 13.254a7.825 7.825 0 0 0 1.67-2.461c.398-.95.597-1.951.597-3.006a7.498 7.498 0 0 0-.615-3.006 7.583 7.583 0 0 0-1.652-2.46 7.825 7.825 0 0 0-2.461-1.67 7.688 7.688 0 0 0-3.006-.598 7.498 7.498 0 0 0-3.006.615 7.583 7.583 0 0 0-2.461 1.652 7.825 7.825 0 0 0-1.67 2.461 7.688 7.688 0 0 0-.598 3.006c0 1.055.205 2.057.616 3.006a7.583 7.583 0 0 0 1.652 2.46 7.825 7.825 0 0 0 2.46 1.67c.95.4 1.952.598 3.007.598a7.498 7.498 0 0 0 3.006-.615 7.583 7.583 0 0 0 2.46-1.652zm-1.582-5.608a.61.61 0 0 1 .448.185.61.61 0 0 1 .184.448.61.61 0 0 1-.184.448.61.61 0 0 1-.448.185H9.685a1.22 1.22 0 0 1-.897-.37 1.22 1.22 0 0 1-.369-.896V4.891a.61.61 0 0 1 .185-.449.61.61 0 0 1 .448-.184.61.61 0 0 1 .448.184.61.61 0 0 1 .185.449v4.218h3.252z"/>
</svg>
