<svg xmlns="http://www.w3.org/2000/svg" width="80" height="80" viewBox="0 0 80 80">
    <g fill="none" fill-rule="evenodd">
        <circle cx="40" cy="40" r="40" fill="#FFF"/>
        <g fill-rule="nonzero">
            <path fill="#3F6585" stroke="#3F6585" stroke-width=".5" d="M35.175 35.284c.275.227.275.635.046.907l-6.692 7.207c-.137.136-.32.227-.458.227a.66.66 0 0 1-.459-.181c-.275-.227-.275-.635-.045-.907l6.691-7.207c.23-.272.642-.272.917-.046zm19.662-9.972c-.275-.272-.687-.272-.916 0L41.867 37.188c-.413.408-1.055.408-1.421 0L28.392 25.312c-.275-.272-.688-.272-.917 0-.275.272-.275.68 0 .906l12.008 11.877c.459.453 1.009.68 1.65.68.642 0 1.192-.227 1.65-.68l12.009-11.877c.275-.272.275-.68.045-.906zM69 35.012c0 .182-.046.408-.23.544l-6.05 5.213a1.08 1.08 0 0 1-.778.318c-.734 0-1.375-.635-2.98-2.448-.137-.182-.275-.408-.458-.816-.092-.182-.229-.499-.32-.68-2.155.408-3.942 1.224-5.547 2.584-.045.045-.045.09-.091.09-.138.091-.23.182-.321.272-.092.09-.23.182-.32.272-.047.046-.093.046-.138.09-1.559 1.36-2.613 2.993-3.3 5.078.183.136.458.317.641.408.367.226.596.362.78.544 1.558 1.722 2.108 2.493 2.062 3.173 0 .317-.183.59-.413.816l-6.141 5.349c-.138.09-.275.181-.413.181h-.137c-1.788-.363-3.667-2.085-3.713-5.938 0-.408.184-.907.413-1.45.137-.273.32-.771.32-.907 0-.68.092-1.36.276-1.995H28.346c-1.834 0-3.346-1.496-3.346-3.309V26.31C25 24.496 26.512 23 28.346 23h25.62c1.834 0 3.347 1.496 3.347 3.31v5.03a10.44 10.44 0 0 1 2.658-.362c.367 0 .733 0 1.1.045.229 0 .642-.09.962-.181.55-.136 1.1-.272 1.513-.227 3.85.499 5.316 2.584 5.454 4.397zM42.554 44.35c1.146-2.946 3.621-5.44 6.28-7.751l.274-.272c2.063-1.768 4.354-3.581 6.875-4.578v-5.44c0-1.133-.916-2.04-2.062-2.04H28.346a2.043 2.043 0 0 0-2.063 2.04V42.31c0 1.134.917 2.04 2.063 2.04h14.208zm25.117-9.564c-.23-1.224-1.467-2.539-4.309-2.901-.229 0-.641.09-1.008.18-.55.137-1.1.273-1.466.228-.321-.046-.642-.046-.917-.046-3.667 0-7.104 2.584-9.992 5.077l-.32.272c-3.347 2.901-6.417 6.12-6.463 10.063 0 .408-.184.862-.413 1.406-.137.317-.32.77-.32.951 0 2.856 1.191 4.216 2.337 4.624l5.775-5.031c-.138-.408-1.238-1.678-1.742-2.176a2.922 2.922 0 0 0-.458-.272c-.733-.408-1.513-.907-1.283-1.677.779-2.448 2.016-4.352 3.85-5.984.045-.045.045-.045.091-.045.092-.091.184-.136.275-.227.092-.09.184-.136.275-.227 0-.045.046-.045.092-.09 1.833-1.587 3.896-2.539 6.508-2.992h.138c.687 0 1.054.77 1.375 1.496.091.181.183.408.229.498.458.544 1.558 1.814 1.97 1.995l5.776-5.122z"/>
            <g fill="#C90D39">
                <path d="M43.94 61H26.888c-.49 0-.888.41-.888.916s.397.916.888.916H43.94c.49 0 .888-.41.888-.916S44.431 61 43.94 61zM34.342 56.916c0-.506-.398-.916-.888-.916H15.888c-.49 0-.888.41-.888.916s.397.916.888.916h17.566c.49 0 .888-.41.888-.916zM20.888 52.832h6.091c.491 0 .888-.41.888-.916S27.47 51 26.98 51h-6.092c-.49 0-.888.41-.888.916s.397.916.888.916z"/>
            </g>
        </g>
    </g>
</svg>
